{
    "success": true,
    "msg": "Read Success",
    "data": {
        "stat": "ok",
        "data": [
            {
                "postBalance": 334.81,
                "amount": -128,
                "service": "transfer",
                "timestamps": {
                    "createdAt": "2018-03-13T08:13:10+00:00",
                    "updatedAt": "2018-03-13T08:13:10+00:00"
                },
                "walletCode": "FS",
                "preBalance": 462.81,
                "serviceId": "5e2da4e0-2696-11e8-abbb-07bc915b3923",
                "userId": "246c7170-71e7-11e7-b6a2-dbb4fae9b3b7",
                "affiliateId": "e687ddd0-bd31-11e7-8d72-adb26a89da33"
            },
            {
                "postBalance": 462.81,
                "amount": 128,
                "service": "coupon",
                "timestamps": {
                    "createdAt": "2018-03-13T08:13:08+00:00",
                    "updatedAt": "2018-03-13T08:13:08+00:00"
                },
                "description": {
                    "coupon": "TESTC2"
                },
                "walletCode": "MAIN",
                "preBalance": 334.81,
                "serviceId": "dd806f60-149d-11e8-b46d-dd2bd65201b5",
                "userId": "246c7170-71e7-11e7-b6a2-dbb4fae9b3b7",
                "affiliateId": "e687ddd0-bd31-11e7-8d72-adb26a89da33"
            },
            {
                "postBalance": 334.81,
                "amount": -128,
                "service": "transfer",
                "timestamps": {
                    "createdAt": "2018-03-03T11:10:31+00:00",
                    "updatedAt": "2018-03-03T11:10:31+00:00"
                },
                "walletCode": "FS",
                "preBalance": 462.81,
                "serviceId": "7cdfafe0-1ed3-11e8-af4a-adcbdfc3009c",
                "userId": "246c7170-71e7-11e7-b6a2-dbb4fae9b3b7",
                "affiliateId": "e687ddd0-bd31-11e7-8d72-adb26a89da33"
            },
            {
                "postBalance": 462.81,
                "amount": 128,
                "service": "coupon",
                "timestamps": {
                    "createdAt": "2018-03-03T11:10:28+00:00",
                    "updatedAt": "2018-03-03T11:10:28+00:00"
                },
                "description": {
                    "coupon": "TEST1505998583"
                },
                "walletCode": "MAIN",
                "preBalance": 334.81,
                "serviceId": "7a654100-1ed3-11e8-b6b2-29d3ff84ce4c",
                "userId": "246c7170-71e7-11e7-b6a2-dbb4fae9b3b7",
                "affiliateId": "e687ddd0-bd31-11e7-8d72-adb26a89da33"
            },
            {
                "postBalance": 334.81,
                "amount": -128,
                "service": "transfer",
                "timestamps": {
                    "createdAt": "2018-02-22T01:07:20+00:00",
                    "updatedAt": "2018-02-22T01:07:20+00:00"
                },
                "walletCode": "FS",
                "preBalance": 462.81,
                "serviceId": "bb923b50-176c-11e8-ab7d-5feb52f94537",
                "userId": "246c7170-71e7-11e7-b6a2-dbb4fae9b3b7",
                "affiliateId": "e687ddd0-bd31-11e7-8d72-adb26a89da33"
            },
            {
                "postBalance": 462.81,
                "amount": 128,
                "service": "coupon",
                "timestamps": {
                    "createdAt": "2018-02-22T01:07:19+00:00",
                    "updatedAt": "2018-02-22T01:07:19+00:00"
                },
                "description": {
                    "coupon": "TEST1505998583"
                },
                "walletCode": "MAIN",
                "preBalance": 334.81,
                "serviceId": "ba273a00-176c-11e8-8516-3bc2a9e6717c",
                "userId": "246c7170-71e7-11e7-b6a2-dbb4fae9b3b7",
                "affiliateId": "e687ddd0-bd31-11e7-8d72-adb26a89da33"
            },
            {
                "postBalance": 334.81,
                "amount": -0.01,
                "service": "transfer",
                "timestamps": {
                    "createdAt": "2018-02-22T01:07:13+00:00",
                    "updatedAt": "2018-02-22T01:07:13+00:00"
                },
                "walletCode": "FS",
                "preBalance": 334.82,
                "serviceId": "b771c3e0-176c-11e8-8ab3-0d76f4c8da96",
                "userId": "246c7170-71e7-11e7-b6a2-dbb4fae9b3b7",
                "affiliateId": "e687ddd0-bd31-11e7-8d72-adb26a89da33"
            },
            {
                "postBalance": 334.82,
                "amount": 0.01,
                "service": "deposit",
                "timestamps": {
                    "createdAt": "2018-02-22T01:07:10+00:00",
                    "updatedAt": "2018-02-22T01:07:10+00:00"
                },
                "description": {
                    "method": "CNYALI"
                },
                "walletCode": "MAIN",
                "preBalance": 334.81,
                "serviceId": "100",
                "userId": "246c7170-71e7-11e7-b6a2-dbb4fae9b3b7",
                "affiliateId": "e687ddd0-bd31-11e7-8d72-adb26a89da33"
            },
            {
                "postBalance": 335.81,
                "amount": 1,
                "service": "transfer",
                "timestamps": {
                    "createdAt": "2018-02-21T02:51:17+00:00",
                    "updatedAt": "2018-02-21T02:51:17+00:00"
                },
                "walletCode": "PT",
                "preBalance": 334.81,
                "serviceId": "16b7f260-16b2-11e8-991b-c1465cdc8f8d",
                "userId": "246c7170-71e7-11e7-b6a2-dbb4fae9b3b7",
                "affiliateId": "e687ddd0-bd31-11e7-8d72-adb26a89da33"
            },
            {
                "postBalance": 334.81,
                "amount": -1,
                "service": "transfer",
                "timestamps": {
                    "createdAt": "2018-02-21T02:51:17+00:00",
                    "updatedAt": "2018-02-21T02:51:17+00:00"
                },
                "walletCode": "FS",
                "preBalance": 335.81,
                "serviceId": "16b7f260-16b2-11e8-991b-c1465cdc8f8d",
                "userId": "246c7170-71e7-11e7-b6a2-dbb4fae9b3b7",
                "affiliateId": "e687ddd0-bd31-11e7-8d72-adb26a89da33"
            },
            {
                "postBalance": 334.81,
                "amount": -1,
                "service": "transfer",
                "timestamps": {
                    "createdAt": "2018-02-21T02:48:38+00:00",
                    "updatedAt": "2018-02-21T02:48:38+00:00"
                },
                "walletCode": "FS",
                "preBalance": 335.81,
                "serviceId": "b7ac20e0-16b1-11e8-b7b4-5f8fa240160b",
                "userId": "246c7170-71e7-11e7-b6a2-dbb4fae9b3b7",
                "affiliateId": "e687ddd0-bd31-11e7-8d72-adb26a89da33"
            },
            {
                "postBalance": 335.81,
                "amount": 1,
                "service": "transfer",
                "timestamps": {
                    "createdAt": "2018-02-21T02:48:38+00:00",
                    "updatedAt": "2018-02-21T02:48:38+00:00"
                },
                "walletCode": "PT",
                "preBalance": 334.81,
                "serviceId": "b7ac20e0-16b1-11e8-b7b4-5f8fa240160b",
                "userId": "246c7170-71e7-11e7-b6a2-dbb4fae9b3b7",
                "affiliateId": "e687ddd0-bd31-11e7-8d72-adb26a89da33"
            },
            {
                "postBalance": 334.81,
                "amount": -1,
                "service": "transfer",
                "timestamps": {
                    "createdAt": "2018-02-21T02:42:32+00:00",
                    "updatedAt": "2018-02-21T02:42:32+00:00"
                },
                "walletCode": "FS",
                "preBalance": 335.81,
                "serviceId": "ddd803a0-16b0-11e8-9048-13f670b28821",
                "userId": "246c7170-71e7-11e7-b6a2-dbb4fae9b3b7",
                "affiliateId": "e687ddd0-bd31-11e7-8d72-adb26a89da33"
            },
            {
                "postBalance": 335.81,
                "amount": 1,
                "service": "transfer",
                "timestamps": {
                    "createdAt": "2018-02-21T02:42:32+00:00",
                    "updatedAt": "2018-02-21T02:42:32+00:00"
                },
                "walletCode": "PT",
                "preBalance": 334.81,
                "serviceId": "ddd803a0-16b0-11e8-9048-13f670b28821",
                "userId": "246c7170-71e7-11e7-b6a2-dbb4fae9b3b7",
                "affiliateId": "e687ddd0-bd31-11e7-8d72-adb26a89da33"
            },
            {
                "postBalance": 334.81,
                "amount": -0.01,
                "service": "transfer",
                "timestamps": {
                    "createdAt": "2018-02-19T22:50:36+00:00",
                    "updatedAt": "2018-02-19T22:50:36+00:00"
                },
                "walletCode": "FS",
                "preBalance": 334.82,
                "serviceId": "4c8958c0-15c7-11e8-b7bb-23ef6c8e9d70",
                "userId": "246c7170-71e7-11e7-b6a2-dbb4fae9b3b7",
                "affiliateId": "e687ddd0-bd31-11e7-8d72-adb26a89da33"
            },
            {
                "postBalance": 334.82,
                "amount": 0.01,
                "service": "deposit",
                "timestamps": {
                    "createdAt": "2018-02-19T22:50:32+00:00",
                    "updatedAt": "2018-02-19T22:50:32+00:00"
                },
                "description": {
                    "method": "CNYALI"
                },
                "walletCode": "MAIN",
                "preBalance": 334.81,
                "serviceId": "99",
                "userId": "246c7170-71e7-11e7-b6a2-dbb4fae9b3b7",
                "affiliateId": "e687ddd0-bd31-11e7-8d72-adb26a89da33"
            },
            {
                "postBalance": 334.81,
                "amount": 0.01,
                "service": "deposit",
                "timestamps": {
                    "createdAt": "2018-02-19T22:49:42+00:00",
                    "updatedAt": "2018-02-19T22:49:42+00:00"
                },
                "description": {
                    "method": "CNYALI"
                },
                "walletCode": "MAIN",
                "preBalance": 334.8,
                "serviceId": "98",
                "userId": "246c7170-71e7-11e7-b6a2-dbb4fae9b3b7",
                "affiliateId": "e687ddd0-bd31-11e7-8d72-adb26a89da33"
            },
            {
                "postBalance": 334.8,
                "amount": 0.01,
                "service": "deposit",
                "timestamps": {
                    "createdAt": "2018-02-19T22:35:01+00:00",
                    "updatedAt": "2018-02-19T22:35:01+00:00"
                },
                "description": {
                    "method": "CNYALI"
                },
                "walletCode": "MAIN",
                "preBalance": 334.79,
                "serviceId": "96",
                "userId": "246c7170-71e7-11e7-b6a2-dbb4fae9b3b7",
                "affiliateId": "e687ddd0-bd31-11e7-8d72-adb26a89da33"
            },
            {
                "postBalance": 334.79,
                "amount": -0.01,
                "service": "transfer",
                "timestamps": {
                    "createdAt": "2018-02-19T22:33:53+00:00",
                    "updatedAt": "2018-02-19T22:33:53+00:00"
                },
                "walletCode": "FS",
                "preBalance": 334.8,
                "serviceId": "f6881910-15c4-11e8-ac24-335360f09a8a",
                "userId": "246c7170-71e7-11e7-b6a2-dbb4fae9b3b7",
                "affiliateId": "e687ddd0-bd31-11e7-8d72-adb26a89da33"
            },
            {
                "postBalance": 334.8,
                "amount": -0.01,
                "service": "transfer",
                "timestamps": {
                    "createdAt": "2018-02-19T22:28:43+00:00",
                    "updatedAt": "2018-02-19T22:28:43+00:00"
                },
                "walletCode": "FS",
                "preBalance": 334.81,
                "serviceId": "3e035b30-15c4-11e8-a66a-2135bcb56891",
                "userId": "246c7170-71e7-11e7-b6a2-dbb4fae9b3b7",
                "affiliateId": "e687ddd0-bd31-11e7-8d72-adb26a89da33"
            },
            {
                "postBalance": 334.81,
                "amount": -0.01,
                "service": "transfer",
                "timestamps": {
                    "createdAt": "2018-02-19T22:19:09+00:00",
                    "updatedAt": "2018-02-19T22:19:09+00:00"
                },
                "walletCode": "FS",
                "preBalance": 334.82,
                "serviceId": "e8154380-15c2-11e8-831e-8ba5c9dbf031",
                "userId": "246c7170-71e7-11e7-b6a2-dbb4fae9b3b7",
                "affiliateId": "e687ddd0-bd31-11e7-8d72-adb26a89da33"
            },
            {
                "postBalance": 334.82,
                "amount": -128,
                "service": "transfer",
                "timestamps": {
                    "createdAt": "2018-02-19T21:54:13+00:00",
                    "updatedAt": "2018-02-19T21:54:13+00:00"
                },
                "walletCode": "FS",
                "preBalance": 462.82,
                "serviceId": "6bf0e370-15bf-11e8-9c99-29395b73aae8",
                "userId": "246c7170-71e7-11e7-b6a2-dbb4fae9b3b7",
                "affiliateId": "e687ddd0-bd31-11e7-8d72-adb26a89da33"
            },
            {
                "postBalance": 462.82,
                "amount": 128,
                "service": "coupon",
                "timestamps": {
                    "createdAt": "2018-02-19T21:54:11+00:00",
                    "updatedAt": "2018-02-19T21:54:11+00:00"
                },
                "description": {
                    "coupon": "TEST1505998583"
                },
                "walletCode": "MAIN",
                "preBalance": 334.82,
                "serviceId": "6adf75d0-15bf-11e8-a3d6-7175fcd42826",
                "userId": "246c7170-71e7-11e7-b6a2-dbb4fae9b3b7",
                "affiliateId": "e687ddd0-bd31-11e7-8d72-adb26a89da33"
            },
            {
                "postBalance": 334.82,
                "amount": -0.01,
                "service": "transfer",
                "timestamps": {
                    "createdAt": "2018-02-19T21:54:08+00:00",
                    "updatedAt": "2018-02-19T21:54:08+00:00"
                },
                "walletCode": "FS",
                "preBalance": 334.83,
                "serviceId": "6928c9d0-15bf-11e8-b01a-33ee19cde4a3",
                "userId": "246c7170-71e7-11e7-b6a2-dbb4fae9b3b7",
                "affiliateId": "e687ddd0-bd31-11e7-8d72-adb26a89da33"
            },
            {
                "postBalance": 334.83,
                "amount": 0.01,
                "service": "deposit",
                "timestamps": {
                    "createdAt": "2018-02-19T21:54:05+00:00",
                    "updatedAt": "2018-02-19T21:54:05+00:00"
                },
                "description": {
                    "method": "CNYALI"
                },
                "walletCode": "MAIN",
                "preBalance": 334.82,
                "serviceId": "95",
                "userId": "246c7170-71e7-11e7-b6a2-dbb4fae9b3b7",
                "affiliateId": "e687ddd0-bd31-11e7-8d72-adb26a89da33"
            }
        ],
        "meta": {
            "path": "/rest/transactions",
            "per_page": "25",
            "total": 108,
            "last_page": 5,
            "from": 1,
            "to": 25,
            "current_page": 1
        },
        "links": {
            "next": "/rest/transactions?timezone=%2B00%3A00&pageSize=25&page=2",
            "last": "/rest/transactions?timezone=%2B00%3A00&pageSize=25&page=5",
            "first": "/rest/transactions?timezone=%2B00%3A00&pageSize=25&page=1"
        }
    }
}