{"success":true,"msg":"Read Success","data":{"stat":"ok","data":[{"amount":0.01,"method":{"code":"CNYALI","timestamps":{"createdAt":"2017-09-06T07:20:42+00:00","updatedAt":"2017-09-06T07:20:42+00:00"},"name":[{"locale":"en-GB","value":"Alipay"},{"locale":"zh-CN","value":"支付宝"},{"locale":"zh-TW","value":"支付寶"}],"description":{"header":"ALIPAY_QR_SCAN"},"range":{"min":0.01,"max":5000},"currency":"CNY","disabled":false},"timestamps":{"createdAt":"2018-03-07T13:11:12+00:00","updatedAt":"2018-03-07T13:11:12+00:00"},"destination":"MAIN","currency":"CNY","id":"6OMy69nbWw","method_code":"CNYALI","user":{"userId":"246c7170-71e7-11e7-b6a2-dbb4fae9b3b7","affiliateId":"e687ddd0-bd31-11e7-8d72-adb26a89da33"},"status":"processing"},{"amount":0.01,"method":{"code":"CNYCC","timestamps":{"createdAt":"2017-09-06T07:20:42+00:00","updatedAt":"2017-09-06T07:20:42+00:00"},"name":[{"locale":"en-GB","value":"Credit/Debit Card"},{"locale":"zh-CN","value":"在线支付"},{"locale":"zh-TW","value":"在線支付"}],"range":{"min":0.01,"max":10000},"currency":"CNY","disabled":false},"timestamps":{"createdAt":"2018-03-07T13:09:45+00:00","updatedAt":"2018-03-07T13:09:45+00:00"},"extra":{"bank":"BOC"},"destination":"MAIN","currency":"CNY","id":"rzVNxnJbOp","method_code":"CNYCC","user":{"userId":"246c7170-71e7-11e7-b6a2-dbb4fae9b3b7","affiliateId":"e687ddd0-bd31-11e7-8d72-adb26a89da33"},"status":"processing"},{"amount":0.01,"method":{"code":"CNYALI","timestamps":{"createdAt":"2017-09-06T07:20:42+00:00","updatedAt":"2017-09-06T07:20:42+00:00"},"name":[{"locale":"en-GB","value":"Alipay"},{"locale":"zh-CN","value":"支付宝"},{"locale":"zh-TW","value":"支付寶"}],"description":{"header":"ALIPAY_QR_SCAN"},"range":{"min":0.01,"max":5000},"currency":"CNY","disabled":false},"timestamps":{"createdAt":"2018-02-27T10:12:46+00:00","updatedAt":"2018-02-27T10:12:46+00:00"},"destination":"MAIN","currency":"CNY","id":"J26jJGEbgv","method_code":"CNYALI","user":{"userId":"246c7170-71e7-11e7-b6a2-dbb4fae9b3b7","affiliateId":"e687ddd0-bd31-11e7-8d72-adb26a89da33"},"status":"processing"},{"amount":0.01,"method":{"code":"CNYALI","timestamps":{"createdAt":"2017-09-06T07:20:42+00:00","updatedAt":"2017-09-06T07:20:42+00:00"},"name":[{"locale":"en-GB","value":"Alipay"},{"locale":"zh-CN","value":"支付宝"},{"locale":"zh-TW","value":"支付寶"}],"description":{"header":"ALIPAY_QR_SCAN"},"range":{"min":0.01,"max":5000},"currency":"CNY","disabled":false},"timestamps":{"createdAt":"2018-02-27T10:11:41+00:00","updatedAt":"2018-02-27T10:11:41+00:00"},"destination":"MAIN","currency":"CNY","id":"QMkNRPBbEw","method_code":"CNYALI","user":{"userId":"246c7170-71e7-11e7-b6a2-dbb4fae9b3b7","affiliateId":"e687ddd0-bd31-11e7-8d72-adb26a89da33"},"status":"processing"},{"amount":0.01,"method":{"code":"CNYALI","timestamps":{"createdAt":"2017-09-06T07:20:42+00:00","updatedAt":"2017-09-06T07:20:42+00:00"},"name":[{"locale":"en-GB","value":"Alipay"},{"locale":"zh-CN","value":"支付宝"},{"locale":"zh-TW","value":"支付寶"}],"description":{"header":"ALIPAY_QR_SCAN"},"range":{"min":0.01,"max":5000},"currency":"CNY","disabled":false},"timestamps":{"createdAt":"2018-02-27T07:10:02+00:00","updatedAt":"2018-02-27T07:10:02+00:00"},"destination":"MAIN","currency":"CNY","id":"vDmb5pej1A","method_code":"CNYALI","user":{"userId":"246c7170-71e7-11e7-b6a2-dbb4fae9b3b7","affiliateId":"e687ddd0-bd31-11e7-8d72-adb26a89da33"},"status":"processing"},{"amount":0.01,"method":{"code":"ALIWAP","timestamps":{"createdAt":"2018-02-05T02:13:12+00:00","updatedAt":"2018-03-11T14:44:58+00:00"},"name":[{"locale":"en-GB","value":"Alipay (Mobile)"},{"locale":"zh-CN","value":"支付宝 (手机)"},{"locale":"zh-TW","value":"支付寶 (手機)"}],"description":{"header":"ALIPAY_WAP"},"range":{"min":0.01,"max":5000},"currency":"CNY","disabled":false},"timestamps":{"createdAt":"2018-02-26T20:46:58+00:00","updatedAt":"2018-02-26T20:46:58+00:00"},"destination":"MAIN","currency":"CNY","id":"V65NXAljM9","method_code":"ALIWAP","user":{"userId":"246c7170-71e7-11e7-b6a2-dbb4fae9b3b7","affiliateId":"e687ddd0-bd31-11e7-8d72-adb26a89da33"},"status":"processing"},{"amount":0.01,"method":{"code":"CNYALI","timestamps":{"createdAt":"2017-09-06T07:20:42+00:00","updatedAt":"2017-09-06T07:20:42+00:00"},"name":[{"locale":"en-GB","value":"Alipay"},{"locale":"zh-CN","value":"支付宝"},{"locale":"zh-TW","value":"支付寶"}],"description":{"header":"ALIPAY_QR_SCAN"},"range":{"min":0.01,"max":5000},"currency":"CNY","disabled":false},"timestamps":{"createdAt":"2018-02-23T08:01:44+00:00","updatedAt":"2018-02-23T08:01:44+00:00"},"destination":"MAIN","currency":"CNY","id":"zw2jVp0y1B","method_code":"CNYALI","user":{"userId":"246c7170-71e7-11e7-b6a2-dbb4fae9b3b7","affiliateId":"e687ddd0-bd31-11e7-8d72-adb26a89da33"},"status":"processing"},{"amount":0.01,"method":{"code":"CNYALI","timestamps":{"createdAt":"2017-09-06T07:20:42+00:00","updatedAt":"2017-09-06T07:20:42+00:00"},"name":[{"locale":"en-GB","value":"Alipay"},{"locale":"zh-CN","value":"支付宝"},{"locale":"zh-TW","value":"支付寶"}],"description":{"header":"ALIPAY_QR_SCAN"},"range":{"min":0.01,"max":5000},"currency":"CNY","disabled":false},"timestamps":{"createdAt":"2018-02-23T07:35:59+00:00","updatedAt":"2018-02-23T07:35:59+00:00"},"destination":"MAIN","currency":"CNY","id":"0o9yYnoNOJ","method_code":"CNYALI","user":{"userId":"246c7170-71e7-11e7-b6a2-dbb4fae9b3b7","affiliateId":"e687ddd0-bd31-11e7-8d72-adb26a89da33"},"status":"processing"},{"amount":0.01,"method":{"code":"CNYALI","timestamps":{"createdAt":"2017-09-06T07:20:42+00:00","updatedAt":"2017-09-06T07:20:42+00:00"},"name":[{"locale":"en-GB","value":"Alipay"},{"locale":"zh-CN","value":"支付宝"},{"locale":"zh-TW","value":"支付寶"}],"description":{"header":"ALIPAY_QR_SCAN"},"range":{"min":0.01,"max":5000},"currency":"CNY","disabled":false},"timestamps":{"createdAt":"2018-02-23T07:33:20+00:00","updatedAt":"2018-02-23T07:33:20+00:00"},"destination":"MAIN","currency":"CNY","id":"4rVjlG1Nkm","method_code":"CNYALI","user":{"userId":"246c7170-71e7-11e7-b6a2-dbb4fae9b3b7","affiliateId":"e687ddd0-bd31-11e7-8d72-adb26a89da33"},"status":"processing"},{"amount":0.01,"method":{"code":"CNYALI","timestamps":{"createdAt":"2017-09-06T07:20:42+00:00","updatedAt":"2017-09-06T07:20:42+00:00"},"name":[{"locale":"en-GB","value":"Alipay"},{"locale":"zh-CN","value":"支付宝"},{"locale":"zh-TW","value":"支付寶"}],"description":{"header":"ALIPAY_QR_SCAN"},"range":{"min":0.01,"max":5000},"currency":"CNY","disabled":false},"timestamps":{"createdAt":"2018-02-23T07:31:19+00:00","updatedAt":"2018-02-23T07:31:19+00:00"},"destination":"MAIN","currency":"CNY","id":"vqJNpgDyz0","method_code":"CNYALI","user":{"userId":"246c7170-71e7-11e7-b6a2-dbb4fae9b3b7","affiliateId":"e687ddd0-bd31-11e7-8d72-adb26a89da33"},"status":"processing"},{"amount":0.01,"method":{"code":"CNYALI","timestamps":{"createdAt":"2017-09-06T07:20:42+00:00","updatedAt":"2017-09-06T07:20:42+00:00"},"name":[{"locale":"en-GB","value":"Alipay"},{"locale":"zh-CN","value":"支付宝"},{"locale":"zh-TW","value":"支付寶"}],"description":{"header":"ALIPAY_QR_SCAN"},"range":{"min":0.01,"max":5000},"currency":"CNY","disabled":false},"timestamps":{"createdAt":"2018-02-23T07:27:23+00:00","updatedAt":"2018-02-23T07:27:23+00:00"},"destination":"MAIN","currency":"CNY","id":"p31jBlQyOd","method_code":"CNYALI","user":{"userId":"246c7170-71e7-11e7-b6a2-dbb4fae9b3b7","affiliateId":"e687ddd0-bd31-11e7-8d72-adb26a89da33"},"status":"processing"},{"amount":0.01,"method":{"code":"CNYALI","timestamps":{"createdAt":"2017-09-06T07:20:42+00:00","updatedAt":"2017-09-06T07:20:42+00:00"},"name":[{"locale":"en-GB","value":"Alipay"},{"locale":"zh-CN","value":"支付宝"},{"locale":"zh-TW","value":"支付寶"}],"description":{"header":"ALIPAY_QR_SCAN"},"range":{"min":0.01,"max":5000},"currency":"CNY","disabled":false},"timestamps":{"createdAt":"2018-02-23T07:08:18+00:00","updatedAt":"2018-02-23T07:08:18+00:00"},"destination":"MAIN","currency":"CNY","id":"5eYb8gajQ7","method_code":"CNYALI","user":{"userId":"246c7170-71e7-11e7-b6a2-dbb4fae9b3b7","affiliateId":"e687ddd0-bd31-11e7-8d72-adb26a89da33"},"status":"processing"},{"amount":0.01,"method":{"code":"CNYALI","timestamps":{"createdAt":"2017-09-06T07:20:42+00:00","updatedAt":"2017-09-06T07:20:42+00:00"},"name":[{"locale":"en-GB","value":"Alipay"},{"locale":"zh-CN","value":"支付宝"},{"locale":"zh-TW","value":"支付寶"}],"description":{"header":"ALIPAY_QR_SCAN"},"range":{"min":0.01,"max":5000},"currency":"CNY","disabled":false},"timestamps":{"createdAt":"2018-02-23T06:50:54+00:00","updatedAt":"2018-02-23T06:50:54+00:00"},"destination":"MAIN","currency":"CNY","id":"rR5Nw4EjdA","method_code":"CNYALI","user":{"userId":"246c7170-71e7-11e7-b6a2-dbb4fae9b3b7","affiliateId":"e687ddd0-bd31-11e7-8d72-adb26a89da33"},"status":"processing"},{"amount":0.01,"method":{"code":"CNYALI","timestamps":{"createdAt":"2017-09-06T07:20:42+00:00","updatedAt":"2017-09-06T07:20:42+00:00"},"name":[{"locale":"en-GB","value":"Alipay"},{"locale":"zh-CN","value":"支付宝"},{"locale":"zh-TW","value":"支付寶"}],"description":{"header":"ALIPAY_QR_SCAN"},"range":{"min":0.01,"max":5000},"currency":"CNY","disabled":false},"timestamps":{"createdAt":"2018-02-22T01:09:56+00:00","updatedAt":"2018-02-22T01:09:56+00:00"},"destination":"MAIN","currency":"CNY","id":"AJlNPaBjRX","method_code":"CNYALI","user":{"userId":"246c7170-71e7-11e7-b6a2-dbb4fae9b3b7","affiliateId":"e687ddd0-bd31-11e7-8d72-adb26a89da33"},"status":"processing"},{"amount":0.01,"coupon":"TEST1505998583","method":{"code":"CNYALI","timestamps":{"createdAt":"2017-09-06T07:20:42+00:00","updatedAt":"2017-09-06T07:20:42+00:00"},"name":[{"locale":"en-GB","value":"Alipay"},{"locale":"zh-CN","value":"支付宝"},{"locale":"zh-TW","value":"支付寶"}],"description":{"header":"ALIPAY_QR_SCAN"},"range":{"min":0.01,"max":5000},"currency":"CNY","disabled":false},"timestamps":{"createdAt":"2018-02-22T01:06:45+00:00","updatedAt":"2018-02-22T01:07:09+00:00"},"destination":"FS","currency":"CNY","id":"OvDbOBXj6n","method_code":"CNYALI","user":{"userId":"246c7170-71e7-11e7-b6a2-dbb4fae9b3b7","affiliateId":"e687ddd0-bd31-11e7-8d72-adb26a89da33"},"status":"finished"},{"amount":0.01,"method":{"code":"CNYALI","timestamps":{"createdAt":"2017-09-06T07:20:42+00:00","updatedAt":"2017-09-06T07:20:42+00:00"},"name":[{"locale":"en-GB","value":"Alipay"},{"locale":"zh-CN","value":"支付宝"},{"locale":"zh-TW","value":"支付寶"}],"description":{"header":"ALIPAY_QR_SCAN"},"range":{"min":0.01,"max":5000},"currency":"CNY","disabled":false},"timestamps":{"createdAt":"2018-02-19T22:50:16+00:00","updatedAt":"2018-02-19T22:50:31+00:00"},"destination":"FS","currency":"CNY","id":"QMkNRPrbEw","method_code":"CNYALI","user":{"userId":"246c7170-71e7-11e7-b6a2-dbb4fae9b3b7","affiliateId":"e687ddd0-bd31-11e7-8d72-adb26a89da33"},"status":"finished"},{"amount":0.01,"method":{"code":"CNYALI","timestamps":{"createdAt":"2017-09-06T07:20:42+00:00","updatedAt":"2017-09-06T07:20:42+00:00"},"name":[{"locale":"en-GB","value":"Alipay"},{"locale":"zh-CN","value":"支付宝"},{"locale":"zh-TW","value":"支付寶"}],"description":{"header":"ALIPAY_QR_SCAN"},"range":{"min":0.01,"max":5000},"currency":"CNY","disabled":false},"timestamps":{"createdAt":"2018-02-19T22:49:19+00:00","updatedAt":"2018-02-19T22:49:40+00:00"},"destination":"MAIN","currency":"CNY","id":"vDmb5pBj1A","method_code":"CNYALI","user":{"userId":"246c7170-71e7-11e7-b6a2-dbb4fae9b3b7","affiliateId":"e687ddd0-bd31-11e7-8d72-adb26a89da33"},"status":"finished"},{"amount":0.01,"method":{"code":"CNYALI","timestamps":{"createdAt":"2017-09-06T07:20:42+00:00","updatedAt":"2017-09-06T07:20:42+00:00"},"name":[{"locale":"en-GB","value":"Alipay"},{"locale":"zh-CN","value":"支付宝"},{"locale":"zh-TW","value":"支付寶"}],"description":{"header":"ALIPAY_QR_SCAN"},"range":{"min":0.01,"max":5000},"currency":"CNY","disabled":false},"timestamps":{"createdAt":"2018-02-19T22:43:28+00:00","updatedAt":"2018-02-19T22:43:28+00:00"},"destination":"MAIN","currency":"CNY","id":"V65NXA0jM9","method_code":"CNYALI","user":{"userId":"246c7170-71e7-11e7-b6a2-dbb4fae9b3b7","affiliateId":"e687ddd0-bd31-11e7-8d72-adb26a89da33"},"status":"processing"},{"amount":0.01,"method":{"code":"CNYALI","timestamps":{"createdAt":"2017-09-06T07:20:42+00:00","updatedAt":"2017-09-06T07:20:42+00:00"},"name":[{"locale":"en-GB","value":"Alipay"},{"locale":"zh-CN","value":"支付宝"},{"locale":"zh-TW","value":"支付寶"}],"description":{"header":"ALIPAY_QR_SCAN"},"range":{"min":0.01,"max":5000},"currency":"CNY","disabled":false},"timestamps":{"createdAt":"2018-02-19T22:34:47+00:00","updatedAt":"2018-02-19T22:35:00+00:00"},"destination":"MAIN","currency":"CNY","id":"zw2jVpry1B","method_code":"CNYALI","user":{"userId":"246c7170-71e7-11e7-b6a2-dbb4fae9b3b7","affiliateId":"e687ddd0-bd31-11e7-8d72-adb26a89da33"},"status":"finished"},{"amount":0.01,"coupon":"TEST1505998583","method":{"code":"CNYALI","timestamps":{"createdAt":"2017-09-06T07:20:42+00:00","updatedAt":"2017-09-06T07:20:42+00:00"},"name":[{"locale":"en-GB","value":"Alipay"},{"locale":"zh-CN","value":"支付宝"},{"locale":"zh-TW","value":"支付寶"}],"description":{"header":"ALIPAY_QR_SCAN"},"range":{"min":0.01,"max":5000},"currency":"CNY","disabled":false},"timestamps":{"createdAt":"2018-02-19T21:53:48+00:00","updatedAt":"2018-02-19T21:54:04+00:00"},"destination":"FS","currency":"CNY","id":"0o9yYnpNOJ","method_code":"CNYALI","user":{"userId":"246c7170-71e7-11e7-b6a2-dbb4fae9b3b7","affiliateId":"e687ddd0-bd31-11e7-8d72-adb26a89da33"},"status":"finished"},{"amount":0.01,"method":{"code":"CNYALI","timestamps":{"createdAt":"2017-09-06T07:20:42+00:00","updatedAt":"2017-09-06T07:20:42+00:00"},"name":[{"locale":"en-GB","value":"Alipay"},{"locale":"zh-CN","value":"支付宝"},{"locale":"zh-TW","value":"支付寶"}],"description":{"header":"ALIPAY_QR_SCAN"},"range":{"min":0.01,"max":5000},"currency":"CNY","disabled":false},"timestamps":{"createdAt":"2018-02-19T21:43:36+00:00","updatedAt":"2018-02-19T21:43:52+00:00"},"destination":"MAIN","currency":"CNY","id":"4rVjlGANkm","method_code":"CNYALI","user":{"userId":"246c7170-71e7-11e7-b6a2-dbb4fae9b3b7","affiliateId":"e687ddd0-bd31-11e7-8d72-adb26a89da33"},"status":"finished"},{"amount":1,"method":{"code":"CNYCC","timestamps":{"createdAt":"2017-09-06T07:20:42+00:00","updatedAt":"2017-09-06T07:20:42+00:00"},"name":[{"locale":"en-GB","value":"Credit/Debit Card"},{"locale":"zh-CN","value":"在线支付"},{"locale":"zh-TW","value":"在線支付"}],"range":{"min":0.01,"max":10000},"currency":"CNY","disabled":false},"timestamps":{"createdAt":"2018-02-19T21:35:32+00:00","updatedAt":"2018-02-19T21:35:32+00:00"},"extra":{"bank":"CMB"},"destination":"MAIN","currency":"CNY","id":"vqJNpgnyz0","method_code":"CNYCC","user":{"userId":"246c7170-71e7-11e7-b6a2-dbb4fae9b3b7","affiliateId":"e687ddd0-bd31-11e7-8d72-adb26a89da33"},"status":"processing"},{"amount":1,"method":{"code":"CNYCC","timestamps":{"createdAt":"2017-09-06T07:20:42+00:00","updatedAt":"2017-09-06T07:20:42+00:00"},"name":[{"locale":"en-GB","value":"Credit/Debit Card"},{"locale":"zh-CN","value":"在线支付"},{"locale":"zh-TW","value":"在線支付"}],"range":{"min":0.01,"max":10000},"currency":"CNY","disabled":false},"timestamps":{"createdAt":"2018-02-19T21:33:27+00:00","updatedAt":"2018-02-19T21:33:27+00:00"},"extra":{"bank":"CCB"},"destination":"MAIN","currency":"CNY","id":"p31jBloyOd","method_code":"CNYCC","user":{"userId":"246c7170-71e7-11e7-b6a2-dbb4fae9b3b7","affiliateId":"e687ddd0-bd31-11e7-8d72-adb26a89da33"},"status":"processing"},{"amount":1,"method":{"code":"CNYCC","timestamps":{"createdAt":"2017-09-06T07:20:42+00:00","updatedAt":"2017-09-06T07:20:42+00:00"},"name":[{"locale":"en-GB","value":"Credit/Debit Card"},{"locale":"zh-CN","value":"在线支付"},{"locale":"zh-TW","value":"在線支付"}],"range":{"min":0.01,"max":10000},"currency":"CNY","disabled":false},"timestamps":{"createdAt":"2018-02-19T21:32:17+00:00","updatedAt":"2018-02-19T21:32:17+00:00"},"extra":{"bank":"CMB"},"destination":"MAIN","currency":"CNY","id":"5eYb8g9jQ7","method_code":"CNYCC","user":{"userId":"246c7170-71e7-11e7-b6a2-dbb4fae9b3b7","affiliateId":"e687ddd0-bd31-11e7-8d72-adb26a89da33"},"status":"processing"},{"amount":1,"method":{"code":"CNYCC","timestamps":{"createdAt":"2017-09-06T07:20:42+00:00","updatedAt":"2017-09-06T07:20:42+00:00"},"name":[{"locale":"en-GB","value":"Credit/Debit Card"},{"locale":"zh-CN","value":"在线支付"},{"locale":"zh-TW","value":"在線支付"}],"range":{"min":0.01,"max":10000},"currency":"CNY","disabled":false},"timestamps":{"createdAt":"2018-02-19T21:25:06+00:00","updatedAt":"2018-02-19T21:25:06+00:00"},"extra":{"bank":"CMB"},"destination":"MAIN","currency":"CNY","id":"rR5Nw44jdA","method_code":"CNYCC","user":{"userId":"246c7170-71e7-11e7-b6a2-dbb4fae9b3b7","affiliateId":"e687ddd0-bd31-11e7-8d72-adb26a89da33"},"status":"processing"}],"meta":{"path":"/rest/orders","per_page":"25","total":102,"last_page":5,"from":1,"to":25,"current_page":1},"links":{"next":"/rest/orders?pageSize=25&page=2","last":"/rest/orders?pageSize=25&page=5","first":"/rest/orders?pageSize=25&page=1"}}}